{
  "parent": "minecraft:recipes/root",
  "criteria": {
    "has_onion": {
      "conditions": {
        "items": [
          {
            "items": [
              "onionadventures:onion"
            ]
          }
        ]
      },
      "trigger": "minecraft:inventory_changed"
    },
    "has_the_recipe": {
      "conditions": {
        "recipe": "onionadventures:roasted_onion_from_smelting_onion"
      },
      "trigger": "minecraft:recipe_unlocked"
    }
  },
  "requirements": [
    [
      "has_onion",
      "has_the_recipe"
    ]
  ],
  "rewards": {
    "recipes": [
      "onionadventures:roasted_onion_from_smelting_onion"
    ]
  }
}