{
  "type": "patchouli:shaped_book_recipe",
  "pattern": [
    "#O"
  ],
  "key": {
    "#": {
      "item": "minecraft:leather"
    },
    "O": {
      "item": "onionadventures:onion_chakra_ledger"
    }
  },
  "book": "onionadventures:onion_adventures_guide"
}