{
	"format_version": "1.8.0",
	"animations": {
		"animation.brown_onion.walk": {
			"loop": true,
			"animation_length": 2.625,
			"bones": {
				"body": {
					"position": {
						"0.0": {
							"vector": [0, 0, 0]
						},
						"0.75": {
							"vector": [0, -1.5, 0]
						},
						"1.375": {
							"vector": [0, 4.75, 0]
						},
						"1.5": {
							"vector": [0, 6.25, 0]
						},
						"1.625": {
							"vector": [0, 7.75, 0]
						},
						"1.75": {
							"vector": [0, 8.5, 0]
						},
						"1.875": {
							"vector": [0, 7.75, 0]
						},
						"2.0": {
							"vector": [0, 6.25, 0]
						},
						"2.125": {
							"vector": [0, 5.25, 0]
						},
						"2.625": {
							"vector": [0, 0, 0]
						}
					},
					"scale": {
						"0.0": {
							"vector": [1, 1, 1]
						},
						"0.75": {
							"vector": [0.85, 0.85, 0.85]
						},
						"1.75": {
							"vector": [0.92, 0.92, 0.92]
						},
						"2.625": {
							"vector": [1, 1, 1]
						}
					}
				}
			}
		},
		"animation.brown_onion.idle": {
			"animation_length": 4.75,
			"bones": {
				"body": {
					"rotation": {
						"0.0": {
							"vector": [0, 0, 0]
						},
						"0.75": {
							"vector": [0, -22.5, -22.5]
						},
						"1.5": {
							"vector": [0, -45, -22.5]
						},
						"2.25": {
							"vector": [17.20018, -23.78348, -13.29092]
						},
						"3.0": {
							"vector": [0, 22.5, 0]
						},
						"3.75": {
							"vector": [-22.5, 45, 0]
						},
						"4.75": {
							"vector": [0, 0, 0]
						}
					}
				}
			}
		}
	},
	"geckolib_format_version": 2
}