{
  "type": "minecraft:smithing",
  "addition": {
    "item": "minecraft:iron_ingot"
  },
  "base": {
    "item": "onionadventures:onion_leggings"
  },
  "result": {
    "item": "onionadventures:onion_iron_leggings"
  }
}