{
  "type": "minecraft:smithing",
  "addition": {
    "item": "minecraft:netherite_ingot"
  },
  "base": {
    "item": "onionadventures:onion_diamond_shovel_empowered"
  },
  "result": {
    "item": "onionadventures:onion_netherite_shovel"
  }
}