{
  "type": "minecraft:smithing",
  "addition": {
    "item": "minecraft:diamond"
  },
  "base": {
    "item": "onionadventures:onion_gold_hoe"
  },
  "result": {
    "item": "onionadventures:onion_diamond_hoe"
  }
}