{
  "type": "minecraft:smithing",
  "addition": {
    "item": "minecraft:diamond"
  },
  "base": {
    "item": "onionadventures:onion_iron_helmet"
  },
  "result": {
    "item": "onionadventures:onion_diamond_helmet"
  }
}