{
  "type": "minecraft:smithing",
  "addition": {
    "item": "minecraft:iron_ingot"
  },
  "base": {
    "item": "onionadventures:onion_hoe_empowered"
  },
  "result": {
    "item": "onionadventures:onion_iron_hoe"
  }
}