{
  "type": "minecraft:smithing",
  "addition": {
    "item": "minecraft:gold_ingot"
  },
  "base": {
    "item": "onionadventures:onion_axe_empowered"
  },
  "result": {
    "item": "onionadventures:onion_gold_axe"
  }
}