{
  "type": "minecraft:smithing",
  "addition": {
    "item": "minecraft:gold_ingot"
  },
  "base": {
    "item": "onionadventures:onion_pickaxe_empowered"
  },
  "result": {
    "item": "onionadventures:onion_gold_pickaxe"
  }
}