{
  "type": "minecraft:smithing",
  "addition": {
    "item": "minecraft:iron_ingot"
  },
  "base": {
    "item": "onionadventures:onion_boots_empowered"
  },
  "result": {
    "item": "onionadventures:onion_iron_boots"
  }
}