{
  "type": "minecraft:smithing",
  "addition": {
    "item": "minecraft:gold_ingot"
  },
  "base": {
    "item": "onionadventures:onion_boots"
  },
  "result": {
    "item": "onionadventures:onion_gold_boots"
  }
}