{
  "type": "minecraft:crafting_shaped",
  "category": "misc",
  "key": {
    "#": {
      "item": "onionadventures:solid_chakra"
    }
  },
  "pattern": [
    "###",
    "###",
    "###"
  ],
  "result": {
    "item": "onionadventures:solid_chakra_dense"
  },
  "show_notification": true
}