{
  "parent": "minecraft:recipes/root",
  "criteria": {
    "has_bunch_of_onions_item": {
      "conditions": {
        "items": [
          {
            "items": [
              "onionadventures:bunch_of_onions"
            ]
          }
        ]
      },
      "trigger": "minecraft:inventory_changed"
    },
    "has_the_recipe": {
      "conditions": {
        "recipe": "onionadventures:onion_leggings"
      },
      "trigger": "minecraft:recipe_unlocked"
    }
  },
  "requirements": [
    [
      "has_bunch_of_onions_item",
      "has_the_recipe"
    ]
  ],
  "rewards": {
    "recipes": [
      "onionadventures:onion_leggings"
    ]
  }
}