{
  "parent": "minecraft:recipes/root",
  "criteria": {
    "has_netherite_ingot": {
      "conditions": {
        "items": [
          {
            "items": [
              "minecraft:netherite_ingot"
            ]
          }
        ]
      },
      "trigger": "minecraft:inventory_changed"
    },
    "has_the_recipe": {
      "conditions": {
        "recipe": "onionadventures:onion_netherite_shovel_smithing"
      },
      "trigger": "minecraft:recipe_unlocked"
    }
  },
  "requirements": [
    [
      "has_netherite_ingot",
      "has_the_recipe"
    ]
  ],
  "rewards": {
    "recipes": [
      "onionadventures:onion_netherite_shovel_smithing"
    ]
  }
}