{
  "type": "minecraft:random_patch",
  "config": {
    "feature": {
      "feature": {
        "type": "minecraft:simple_block",
        "config": {
          "to_place": {
            "type": "minecraft:weighted_state_provider",
            "entries": [
              {
                "data": {
                  "Name": "onionadventures:wild_onions",
                  "Properties": {
                    "age": "0"
                  }
                },
                "weight": 8
              },
              {
                "data": {
                  "Name": "onionadventures:wild_onions",
                  "Properties": {
                    "age": "1"
                  }
                },
                "weight": 2
              }
            ]
          }
        }
      },
      "placement": [
        {
          "type": "minecraft:block_predicate_filter",
          "predicate": {
            "type": "minecraft:matching_blocks",
            "blocks": "minecraft:air"
          }
        }
      ]
    },
    "tries": 1,
    "xz_spread": 5,
    "y_spread": 3
  }
}